LEEF2 RRD Ready Check
…
Check 4.3: water chemistry

TODO [ ]: Needs to be checked

The following data.frame should be empty

Code

NAs_wc <- water_chem %>%
  group_by(type, bottle, timestamp) %>%
  summarize(concentrationNA = sum(is.na(concentration))) %>%
  dplyr::filter(concentrationNA>0)
NAs_wc

# A tibble: 148 × 4
# Groups:   type, bottle [56]
   type  bottle timestamp concentrationNA
   <chr> <chr>      <int>           <int>
 1 IC    b_01    20230130               1
 2 IC    b_06    20221107               1
 3 IC    b_20    20230605               1
 4 IC    b_21    20221130               1
 5 IC    b_21    20230123               1
 6 IC    b_21    20230605               1
 7 IC    b_22    20221130               1
 8 IC    b_22    20230605               1
 9 IC    b_23    20221130               1
10 IC    b_23    20230605               1
# ℹ 138 more rows
…
